Assignment 01 – John Glendenning
…
[1] "Number of missing values in the entire data frame: 494"

Q3

Export the Electric Vehicle data to a new CSV file.

write.csv(ev_data, "electric_vehicle_data.csv", row.names = FALSE)

Modify a column (e.g., replace missing values) and save the modified data.

ev_data$Postal_Code[is.na(ev_data$Postal_Code)] <- "XXXXX"
print(ev_data)

# A tibble: 194,232 × 17
   `VIN (1-10)` County    City         State Postal_Code Model_Year Make   Model
   <chr>        <chr>     <chr>        <chr> <chr>            <dbl> <chr>  <chr>
 1 1C4RJXN66R   Snohomish Everett      WA    98204             2024 JEEP   WRAN…
 2 KNDJX3AEXG   King      Renton       WA    98058             2016 KIA    SOUL 
 3 5YJ3E1EA3L   King      Seattle      WA    98125             2020 TESLA  MODE…
 4 1G1RC6S5XH   Kitsap    Port Orchard WA    98367             2017 CHEVR… VOLT 
 5 5UXTA6C09P   Snohomish Monroe       WA    98272             2023 BMW    X5   
 6 1FMCU0EZXN   Yakima    Moxee        WA    98936             2022 FORD   ESCA…
 7 5YJSA1DNXD   Thurston  Olympia      WA    98506             2013 TESLA  MODE…
 8 1N4AZ0CP8F   Snohomish Monroe       WA    98272             2015 NISSAN LEAF 
 9 WP1AE2A21J   Snohomish Everett      WA    98208             2018 PORSC… CAYE…
10 1N4BZ1BV4N   Snohomish Everett      WA    98208             2022 NISSAN LEAF 
# ℹ 194,222 more rows
# ℹ 9 more variables: `Electric Vehicle Type` <chr>,
#   `Clean Alternative Fuel Vehicle (CAFV) Eligibility` <chr>,
#   Electric_Range <dbl>, `Base MSRP` <dbl>, `Legislative District` <dbl>,
#   `DOL Vehicle ID` <dbl>, `Vehicle Location` <chr>, `Electric Utility` <chr>,
#   `2020 Census Tract` <dbl>
…
