Roman Coin Circulation Model – John Glendenning
…
Code

cat("Mints with non-NA mint_lat:\n")

Mints with non-NA mint_lat:

Code

mint_coords %>% 
  filter(!is.na(mint_lat)) %>%
  dplyr::select(mint_id, mint_lat, mint_lon, n_types) %>%
  print()

# A tibble: 71 × 4
   mint_id             mint_lat mint_lon n_types
   <chr>                  <dbl>    <dbl>   <dbl>
 1 rome                    41.9   12.5     28177
 2 narbo                   43.2    3         379
 3 italy_north_rrc         45     11         297
 4 massalia                43.3    5.38       55
 5 italy_southeast_rrc     40.5   17          53
 6 sicily2_rrc             37.5   14          45
 7 apollonia_illyria       40.7   19.5        32
 8 luceria                 41.5   15.3        25
 9 italy_central_rrc       42.5   12.5        24
10 osca                    42.1   -0.408       4
# ℹ 61 more rows
…
