EPPS 6323: Project Test – John Glendenning
…
# ---- Sentiment Analysis ----
sentiment_lexicon <- get_sentiments("bing")  # Use Bing sentiment lexicon

sentiment_scores <- tidy_docs %>%
  inner_join(sentiment_lexicon, by = "word") %>%
  count(file, sentiment) %>%
  spread(sentiment, n, fill = 0) %>%
  mutate(sentiment_score = positive - negative)

# Display sentiment scores per document
print(sentiment_scores)

# A tibble: 39 × 4
   file                                        negative positive sentiment_score
   <chr>                                          <dbl>    <dbl>           <dbl>
 1 Astin-RoleCensorsRoman-1990.pdf                   71      157              86
 2 Ault-KopronesOilPresses-1999.pdf                 194       24            -170
 3 Bagnall-LandholdingLateRoman-1992.pdf            111       91             -20
 4 Biers-MassProductionStandardized-1994.pdf        123       23            -100
 5 Bowersock-BelochBirthDemography-1997.pdf          41       25             -16
 6 Cascio-SizeRomanPopulation-1994.pdf              223      123            -100
 7 CORNELL-HANNIBALSLEGACYEFFECTS-1996.pdf           27       10             -17
 8 Elsner-HagiographicGeographyTravel-1997.pdf       29       84              55
 9 Erdkamp-AgricultureUnderemploymentCost-199…      157       63             -94
10 Fagan-ReliabilityRomanRebuilding-1996.pdf         51       17             -34
# ℹ 29 more rows
…
# Extract topics and terms
topics <- tidy(lda_model, matrix = "beta")

# View top terms for each topic
top_terms <- topics %>%
  group_by(topic) %>%
  slice_max(beta, n = 10) %>%
  ungroup()

# Display top terms
print(top_terms)

# A tibble: 60 × 3
   topic term    beta
   <int> <chr>  <dbl>
 1     1 0     0.0615
 2     1 2     0.0271
 3     1 7     0.0198
 4     1 5     0.0197
 5     1 9     0.0197
 6     1 1     0.0197
 7     1 8     0.0196
 8     1 6     0.0192
 9     1 3     0.0189
10     1 4     0.0181
# ℹ 50 more rows

# ---- Topic Distribution per Document ----
topic_distribution <- tidy(lda_model, matrix = "gamma") %>%
  rename(document = document, topic_probability = gamma)

# Display document-topic probabilities
print(topic_distribution)

# A tibble: 234 × 3
   document                                        topic topic_probability
   <chr>                                           <int>             <dbl>
 1 Astin-RoleCensorsRoman-1990.pdf                     1       0.977      
 2 Ault-KopronesOilPresses-1999.pdf                    1       0.000000163
 3 Bagnall-LandholdingLateRoman-1992.pdf               1       0.975      
 4 Biers-MassProductionStandardized-1994.pdf           1       0.000000327
 5 Bowersock-BelochBirthDemography-1997.pdf            1       0.967      
 6 CORNELL-HANNIBALSLEGACYEFFECTS-1996.pdf             1       0.000000812
 7 Cascio-SizeRomanPopulation-1994.pdf                 1       0.000000172
 8 Elsner-HagiographicGeographyTravel-1997.pdf         1       0.000000900
 9 Erdkamp-AgricultureUnderemploymentCost-1999.pdf     1       0.000000257
10 Fagan-ReliabilityRomanRebuilding-1996.pdf           1       0.964      
# ℹ 224 more rows
…
